{
  "type": "object",
  "properties": {
    "ssn": {
      "type": "string",
      "title": "SSN",
      "description": "The customers SSN",
      "pattern": "^[0-9]{11}$"
    },
    "email": {
      "title": "Email",
      "description": "Email",
      "type": "string"
    }
  },
  "required": ["ssn", "email"]
}
